 576.00 576.00 576.00 576.00 576.00 576.00  21.00  58.50  95.75 132.75 169.60 206.25 243.10 576.00
   0.00   0.00   0.00   0.00   0.00   0.00 267.50 251.00 234.10 217.25 200.25 182.90 165.10   0.00
 576.00 576.00 576.00-108.40 -69.50 -31.25   6.50  44.75  83.00 121.00 158.50 196.50 234.00 576.00
   0.00   0.00   0.00 276.00 263.00 249.50 235.50 221.00 206.30 192.00 177.00 162.00 146.00   0.00
-242.75-203.00-163.00-124.00 -84.50 -45.25  -6.25  31.75  71.00 110.00 148.50 187.25 225.75 264.75
 263.25 254.00 245.00 234.25 223.10 212.00 200.20 188.10 176.00 164.10 151.25 138.50 125.25 112.00
-258.00-218.00-177.50-137.50 -97.50 -57.50 -18.25  21.00  60.75 100.25 139.75 179.00 218.25 257.50
 210.25 203.75 197.00 189.00 180.70 172.00 162.90 153.20 143.75 134.10 124.00 113.50 102.60  92.00
 576.00-229.50-188.75-148.25-108.25 -67.75 -27.50  12.50  52.25  92.25 133.25 172.25 212.00 253.00
   0.00 151.25 147.60 142.25 136.40 130.60 124.00 117.00 110.00 103.00  95.25  87.50  79.00  70.75
 576.00-238.50-197.50-156.25-116.25 -75.50 -35.00   5.50  46.00  86.50 127.00 167.30 207.75 248.30
   0.00  96.60  95.75  93.25  90.00  87.00  83.00  79.10  74.75  70.25  65.25  60.00  54.70  49.00
 576.00-243.00-202.00-161.25-120.70 -80.00 -39.10   1.25  42.00  83.00 123.50 164.00 204.75 245.50
   0.00  40.50  42.50  42.75  42.50  42.00  41.00  40.00  38.00  36.75  34.50  32.10  29.30  26.50
 576.00-244.00-203.25-162.50-122.00 -81.25 -40.50   0.00  40.50  81.20 122.00 162.75 203.25 244.00
   0.00 -16.00 -11.00  -8.00  -5.50  -3.10  -1.50   0.00   1.25   2.75   3.25   3.75   3.75   3.75
 576.00-241.25-201.00-160.50-120.00 -79.50 -39.00   1.50  41.75  82.25 123.00 163.25 204.00 245.00
   0.00 -73.00 -65.50 -59.50 -54.25 -49.00 -44.25 -40.00 -36.00 -31.75 -28.50 -25.00 -22.00 -19.00
 576.00-234.25-194.75-154.75-115.00 -75.00 -35.00   5.00  45.00  85.00 125.75 165.75 206.25 246.25
   0.00-128.70-118.50-110.00-101.75 -94.00 -86.75 -79.50 -72.75 -65.75 -59.75 -53.50 -47.90 -42.00
-263.00-224.00-185.00-146.00-106.50 -67.25 -27.75  12.00  51.00  90.75 130.75 170.25 210.25 250.50
-195.00-182.75-170.00-158.75-148.00-137.30-127.50-118.00-108.25 -98.75 -90.00 -81.25 -72.75 -64.50
-248.25-210.25-172.25-133.80 -95.50 -56.75 -17.75  20.75  59.50  98.50 137.50 176.75 216.00 255.00
-250.00-235.30-220.25-206.30-193.10-180.00-167.40-155.10-143.00-131.00-120.00-108.00 -97.00 -86.00
 576.00 576.00-156.75-119.50 -81.75 -44.00  -6.00  31.75  69.75 107.75 146.00 184.00 222.60 261.50
   0.00   0.00-267.25-251.25-236.75-220.10-205.25-190.50-176.00-161.25-147.25-133.50-120.00-106.50
 576.00 576.00 576.00 576.00 576.00 -29.00   7.60  44.10  81.25 118.25 155.75 193.00 231.00 576.00
   0.00   0.00   0.00   0.00   0.00-257.25-240.50-223.30-206.75-189.90-173.30-157.50-141.50   0.00
