       65.8139       20.5410      -2.90000      -25.7250
       61.7499       20.5410      0.759998      -24.0500
       57.6859       20.5410       4.41000      -22.3300
       53.6219       20.5410       8.12500      -20.6750
       49.5579       20.5410       11.8250      -18.9900
       45.4939       20.5410       15.5750      -17.3300
       41.4299       20.5410       19.3000      -15.7500
       37.3659       20.5410       23.1000      -14.1500
       78.0059       16.9770      -15.6750      -26.7250
       73.9419       16.9770      -11.9500      -25.1250
       69.8779       16.9770      -8.17500      -23.6750
       65.8139       16.9770      -4.40000      -22.0100
       61.7499       16.9770     -0.599998      -20.5250
       57.6859       16.9770       3.17500      -19.0500
       53.6219       16.9770       6.97500      -17.6000
       49.5579       16.9770       10.7750      -16.1250
       45.4939       16.9770       14.6000      -14.7250
       41.4299       16.9770       18.4000      -13.3500
       37.3659       16.9770       22.2600      -12.0000
       33.3019       16.9770       26.1500      -10.6500
       86.1339       13.2730      -24.8250      -25.0000
       82.0699       13.2730      -21.0250      -23.5300
       78.0059       13.2730      -17.2250      -22.0250
       73.9419       13.2730      -13.3800      -20.6300
       69.8779       13.2730      -9.55000      -19.3100
       65.8139       13.2730      -5.67500      -18.0000
       61.7499       13.2730      -1.77500      -16.7400
       57.6859       13.2730       2.07500      -15.5100
       53.6219       13.2730       5.95000      -14.3000
       49.5579       13.2730       9.85000      -13.1000
       45.4939       13.2730       13.7500      -12.0000
       41.4299       13.2730       17.6750      -10.8000
       37.3659       13.2730       21.6000      -9.70000
       33.3019       13.2730       25.5000      -8.60000
       86.1339       9.45200      -26.3000      -19.5000
       82.0699       9.45200      -22.4000      -18.2750
       78.0059       9.45200      -18.5000      -17.0000
       73.9419       9.45200      -14.6000      -15.8750
       69.8779       9.45200      -10.6500      -14.8000
       65.8139       9.45200      -6.72500      -13.7300
       61.7499       9.45200      -2.77500      -12.7500
       57.6859       9.45200       1.20000      -11.8000
       53.6219       9.45200       5.10000      -10.8250
       49.5579       9.45200       9.07500      -9.87500
       45.4939       9.45200       13.0750      -9.00000
       41.4299       9.45200       17.0250      -8.12500
       37.3659       9.45200       21.0250      -7.27500
       33.3019       9.45200       25.0500      -6.45000
       82.0699       5.54500      -23.4250      -12.8700
       78.0059       5.54500      -19.4750      -11.8500
       73.9419       5.54500      -15.4750      -11.0000
       69.8779       5.54500      -11.5000      -10.1750
       65.8139       5.54500      -7.50000      -9.40000
       61.7499       5.54500      -3.50000      -8.67500
       57.6859       5.54500      0.500000      -7.95000
       53.6219       5.54500       4.50000      -7.27500
       49.5579       5.54500       8.50000      -6.57500
       45.4939       5.54500       12.5750      -5.97500
       41.4299       5.54500       16.5750      -5.35000
       37.3659       5.54500       20.6250      -4.79000
       33.3019       5.54500       24.6250      -4.20000
       82.0699       1.58500      -24.1250      -7.30000
       78.0059       1.58500      -20.1000      -6.55000
       73.9419       1.58500      -16.0500      -5.95000
       69.8779       1.58500      -12.0000      -5.42500
       65.8139       1.58500      -7.95000      -4.90000
       61.7499       1.58500      -3.90000      -4.42500
       57.6859       1.58500      0.150002      -4.00000
       53.6219       1.58500       4.17500      -3.60000
       49.5579       1.58500       8.22500      -3.17500
       45.4939       1.58500       12.3000      -2.85000
       41.4299       1.58500       16.3250      -2.50000
       37.3659       1.58500       20.4000      -2.20000
       33.3019       1.58500       24.5000      -1.90000
       82.0699      -2.39000      -24.4000      -1.60000
       78.0059      -2.39000      -20.3250      -1.10000
       73.9419      -2.39000      -16.2500     -0.800000
       69.8779      -2.39000      -12.2000     -0.550000
       65.8139      -2.39000      -8.12500     -0.310000
       61.7499      -2.39000      -4.05000     -0.150000
       57.6859      -2.39000      0.000000      0.000000
       53.6219      -2.39000       4.05000      0.125000
       49.5579      -2.39000       8.12000      0.275000
       45.4939      -2.39000       12.2000      0.325000
       41.4299      -2.39000       16.2750      0.375000
       37.3659      -2.39000       20.3250      0.375000
       33.3019      -2.39000       24.4000      0.375000
       82.0699      -6.34100      -24.3000       4.05000
       78.0059      -6.34100      -20.2000       4.25000
       73.9419      -6.34100      -16.1250       4.27500
       69.8779      -6.34100      -12.0700       4.25000
       65.8139      -6.34100      -8.00000       4.20000
       61.7499      -6.34100      -3.91000       4.10000
       57.6859      -6.34100      0.125000       4.00000
       53.6219      -6.34100       4.20000       3.80000
       49.5579      -6.34100       8.30000       3.67500
       45.4939      -6.34100       12.3500       3.45000
       41.4299      -6.34100       16.4000       3.21000
       37.3659      -6.34100       20.4750       2.93000
       33.3019      -6.34100       24.5500       2.65000
       82.0699      -10.2340      -23.8500       9.66000
       78.0059      -10.2340      -19.7500       9.57500
       73.9419      -10.2340      -15.6250       9.32500
       69.8779      -10.2340      -11.6250       9.00000
       65.8139      -10.2340      -7.55000       8.70000
       61.7499      -10.2340      -3.50000       8.30000
       57.6859      -10.2340      0.549999       7.91000
       53.6219      -10.2340       4.60000       7.47500
       49.5579      -10.2340       8.65000       7.02500
       45.4939      -10.2340       12.7000       6.52500
       41.4299      -10.2340       16.7300       6.00000
       37.3659      -10.2340       20.7750       5.47000
       33.3019      -10.2340       24.8300       4.90000
       82.0699      -14.0330      -22.9500       15.1250
       78.0059      -14.0330      -18.8750       14.7600
       73.9419      -14.0330      -14.8250       14.2250
       69.8779      -14.0330      -10.8250       13.6400
       65.8139      -14.0330      -6.77500       13.0600
       61.7499      -14.0330      -2.75000       12.4000
       57.6859      -14.0330       1.25000       11.7000
       53.6219      -14.0330       5.22500       11.0000
       49.5579      -14.0330       9.22500       10.3000
       45.4939      -14.0330       13.3250       9.52500
       41.4299      -14.0330       17.2250       8.75000
       37.3659      -14.0330       21.2000       7.90000
       33.3019      -14.0330       25.3000       7.07500
       86.1339      -17.7110      -25.8000       21.0250
       82.0699      -17.7110      -21.8000       20.3750
       78.0059      -17.7110      -17.7500       19.7000
       73.9419      -17.7110      -13.7500       18.9000
       69.8779      -17.7110      -9.75000       18.0700
       65.8139      -17.7110      -5.75000       17.2000
       61.7499      -17.7110      -1.82500       16.2900
       57.6859      -17.7110       2.10000       15.3200
       53.6219      -17.7110       6.07500       14.3750
       49.5579      -17.7110       10.0250       13.4100
       45.4939      -17.7110       13.9750       12.4000
       41.4299      -17.7110       17.9000       11.3500
       37.3659      -17.7110       21.8250       10.2600
       33.3019      -17.7110       25.7500       9.20000
       86.1339      -21.2440      -24.2750       26.3250
       82.0699      -21.2440      -20.3000       25.4000
       78.0059      -21.2440      -16.3000       24.5000
       73.9419      -21.2440      -12.4000       23.4250
       69.8779      -21.2440      -8.45000       22.3100
       65.8139      -21.2440      -4.52500       21.2000
       61.7499      -21.2440     -0.625000       20.0200
       57.6859      -21.2440       3.17500       18.8100
       53.6219      -21.2440       7.10000       17.6000
       49.5579      -21.2440       11.0000       16.4100
       45.4939      -21.2440       14.8500       15.1250
       41.4299      -21.2440       18.7250       13.8500
       37.3659      -21.2440       22.5750       12.5250
       33.3019      -21.2440       26.4750       11.2000
       73.9419      -24.6150      -10.8400       27.6000
       69.8779      -24.6150      -6.95000       26.3000
       65.8139      -24.6150      -3.12500       24.9500
       61.7499      -24.6150      0.650002       23.5500
       57.6859      -24.6150       4.47500       22.1000
       53.6219      -24.6150       8.30000       20.6300
       49.5579      -24.6150       12.1000       19.2000
       45.4939      -24.6150       15.8500       17.7000
       41.4299      -24.6150       19.6500       16.2000
       37.3659      -24.6150       23.4000       14.6000
       61.7499      -27.8150       2.10000       26.7500
       57.6859      -27.8150       5.85000       25.1000
       53.6219      -27.8150       9.57500       23.4100
       49.5579      -27.8150       13.2750       21.7250
       45.4939      -27.8150       16.9600       20.0250
       41.4299      -27.8150       20.6250       18.2900
       37.3659      -27.8150       24.3100       16.5100
