@xy_calibration_name=2004-06-04 0.375 inch calibration, @r_coeff_order=0, @theta_coeff_order=0, @coeff=5.099527E-3;
@xy_calibration_name=2004-06-04 0.375 inch calibration, @r_coeff_order=0, @theta_coeff_order=1, @coeff=-2.232211E-3;
@xy_calibration_name=2004-06-04 0.375 inch calibration, @r_coeff_order=0, @theta_coeff_order=2, @coeff=-1.116378E-3;
@xy_calibration_name=2004-06-04 0.375 inch calibration, @r_coeff_order=1, @theta_coeff_order=0, @coeff=-8.317949E-5;
@xy_calibration_name=2004-06-04 0.375 inch calibration, @r_coeff_order=1, @theta_coeff_order=1, @coeff=1.069308E-4;
@xy_calibration_name=2004-06-04 0.375 inch calibration, @r_coeff_order=1, @theta_coeff_order=2, @coeff=-9.462104E-5;
@xy_calibration_name=2004-06-04 0.375 inch calibration, @r_coeff_order=2, @theta_coeff_order=0, @coeff=2.391261E-6;
@xy_calibration_name=2004-06-04 0.375 inch calibration, @r_coeff_order=2, @theta_coeff_order=1, @coeff=-6.103604E-7;
@xy_calibration_name=2004-06-04 0.375 inch calibration, @r_coeff_order=2, @theta_coeff_order=2, @coeff=-1.805836E-7;
