       73.2400       20.2000      -10.1300      -26.4800
       69.2400       20.2000      -6.44000      -24.9600
       65.2400       20.2000      -2.70000      -23.5200
       61.2400       20.2000      0.970001      -21.9500
       57.2400       20.2000       4.62000      -20.2400
       53.2400       20.2000       8.30000      -18.7400
       49.2400       20.2000       12.1800      -17.3300
       45.2400       20.2000       15.7700      -15.8400
       41.2400       20.2000       19.4800      -14.2400
       37.2400       20.2000       23.1500      -12.7500
       33.2400       20.2000       26.9400      -11.3900
       29.2400       20.2000       30.6500      -9.94000
       81.2400       17.8000      -18.9400      -25.5100
       77.2400       17.8000      -15.1800      -24.4100
       73.2400       17.8000      -11.3200      -23.0200
       69.2400       17.8000      -7.64000      -21.6000
       65.2400       17.8000      -3.85000      -20.2400
       61.2400       17.8000    -0.0600014      -19.0100
       57.2400       17.8000       3.60000      -17.3700
       53.2400       17.8000       7.40000      -16.1100
       49.2400       17.8000       11.2400      -15.0700
       45.2400       17.8000       14.9700      -13.5200
       41.2400       17.8000       18.7700      -12.2600
       37.2400       17.8000       22.4900      -10.8000
       33.2400       17.8000       26.3700      -9.82000
       29.2400       17.8000       30.0900      -8.33000
       81.2400       15.4000      -19.8100      -22.6000
       77.2400       15.4000      -16.0900      -21.4300
       73.2400       15.4000      -12.2000      -20.4300
       69.2400       15.4000      -8.41000      -19.0500
       65.2400       15.4000      -4.62000      -17.6900
       61.2400       15.4000     -0.750000      -16.2300
       57.2400       15.4000       3.00000      -15.3700
       53.2400       15.4000       6.84000      -14.2300
       49.2400       15.4000       10.6600      -13.0200
       45.2400       15.4000       14.4700      -11.8200
       41.2400       15.4000       18.3000      -10.6000
       37.2400       15.4000       22.1400      -9.60000
       33.2400       15.4000       25.9500      -8.17000
       29.2400       15.4000       29.7700      -7.17000
       81.2400       13.0000      -20.7600      -19.1300
       77.2400       13.0000      -17.0200      -18.0800
       73.2400       13.0000      -13.1400      -17.1500
       69.2400       13.0000      -9.13000      -16.2500
       65.2400       13.0000      -5.42000      -15.0100
       61.2400       13.0000      -1.55000      -14.0500
       57.2400       13.0000       2.31000      -13.0000
       53.2400       13.0000       6.16000      -11.9300
       49.2400       13.0000       10.0700      -11.1300
       45.2400       13.0000       13.9500      -10.0300
       41.2400       13.0000       17.8300      -9.04000
       37.2400       13.0000       21.7200      -8.11000
       33.2400       13.0000       25.6100      -7.14000
       29.2400       13.0000       29.4700      -6.15000
       81.2400       10.6000      -21.4700      -16.1100
       77.2400       10.6000      -17.6500      -15.3100
       73.2400       10.6000      -13.8000      -14.2200
       69.2400       10.6000      -9.86000      -13.4200
       65.2400       10.6000      -5.98000      -12.4500
       61.2400       10.6000      -2.09000      -11.5500
       57.2400       10.6000       1.85000      -10.8700
       53.2400       10.6000       5.75000      -10.0200
       49.2400       10.6000       9.64000      -8.97000
       45.2400       10.6000       13.6300      -8.48000
       41.2400       10.6000       17.4500      -7.37000
       37.2400       10.6000       21.3700      -6.56000
       33.2400       10.6000       25.3200      -5.85000
       29.2400       10.6000       29.1800      -4.97000
       81.2400       8.20000      -22.1700      -12.4700
       77.2400       8.20000      -18.2900      -12.0200
       73.2400       8.20000      -14.3900      -11.1500
       69.2400       8.20000      -10.4200      -10.5600
       65.2400       8.20000      -6.51000      -9.69000
       61.2400       8.20000      -2.55000      -9.12000
       57.2400       8.20000       1.35000      -8.22000
       53.2400       8.20000       5.32000      -7.73000
       49.2400       8.20000       9.26000      -6.95000
       45.2400       8.20000       13.2200      -6.36000
       41.2400       8.20000       17.1500      -5.57000
       37.2400       8.20000       21.1000      -4.90000
       33.2400       8.20000       25.0700      -4.30000
       29.2400       8.20000       28.9800      -3.54000
       81.2400       5.80000      -22.6500      -9.06000
       77.2400       5.80000      -18.7600      -8.66000
       73.2400       5.80000      -14.8000      -8.12000
       69.2400       5.80000      -10.8300      -7.62000
       65.2400       5.80000      -6.87000      -7.00000
       61.2400       5.80000      -2.90000      -6.46000
       57.2400       5.80000       1.03000      -5.79000
       53.2400       5.80000       5.00000      -5.27000
       49.2400       5.80000       8.96000      -4.80000
       45.2400       5.80000       12.9500      -4.37000
       41.2400       5.80000       16.9200      -3.67000
       37.2400       5.80000       20.9000      -3.28000
       33.2400       5.80000       24.8800      -2.79000
       29.2400       5.80000       28.8200      -2.31000
       81.2400       3.40000      -22.9600      -5.80000
       77.2400       3.40000      -19.0900      -5.37000
       73.2400       3.40000      -15.1000      -4.97000
       69.2400       3.40000      -11.1100      -4.54000
       65.2400       3.40000      -7.12000      -4.16000
       61.2400       3.40000      -3.14000      -3.82000
       57.2400       3.40000      0.840000      -3.45000
       53.2400       3.40000       4.82000      -3.20000
       49.2400       3.40000       8.80000      -2.33000
       45.2400       3.40000       12.7900      -2.40000
       41.2400       3.40000       16.7700      -1.98000
       37.2400       3.40000       20.7600      -1.67000
       33.2400       3.40000       24.7400      -1.40000
       29.2400       3.40000       28.7400      -1.10000
       81.2400       1.00000      -23.1300      -2.31000
       77.2400       1.00000      -19.2500      -2.27000
       73.2400       1.00000      -15.2500      -1.98000
       69.2400       1.00000      -11.2600      -1.69000
       65.2400       1.00000      -7.26000      -1.42000
       61.2400       1.00000      -3.25000      -1.24000
       57.2400       1.00000      0.720001     -0.920000
       53.2400       1.00000       4.70000     -0.880000
       49.2400       1.00000       8.71000     -0.740000
       45.2400       1.00000       12.7300     -0.580000
       41.2400       1.00000       16.7000     -0.350000
       37.2400       1.00000       20.6500    -0.0600000
       33.2400       1.00000       24.6700    -0.0200000
       29.2400       1.00000       28.6500      0.230000
       81.2400      -1.40000      -23.2600      0.960000
       77.2400      -1.40000      -19.3500       1.16000
       73.2400      -1.40000      -15.3600       1.22000
       69.2400      -1.40000      -11.3300       1.21000
       65.2400      -1.40000      -7.32000       1.27000
       61.2400      -1.40000      -3.31000       1.26000
       57.2400      -1.40000      0.650002       1.29000
       53.2400      -1.40000       4.63000       1.34000
       49.2400      -1.40000       8.64000       1.38000
       45.2400      -1.40000       12.6600       1.37000
       41.2400      -1.40000       16.6600       1.34000
       37.2400      -1.40000       20.6600       1.32000
       33.2400      -1.40000       24.6600       1.24000
       29.2400      -1.40000       28.6500       1.25000
       81.2400      -3.80000      -23.1400       4.25000
       77.2400      -3.80000      -19.2400       4.05000
       73.2400      -3.80000      -15.2400       4.03000
       69.2400      -3.80000      -11.2300       3.90000
       65.2400      -3.80000      -7.22000       3.82000
       61.2400      -3.80000      -3.22000       3.71000
       57.2400      -3.80000      0.759998       3.50000
       53.2400      -3.80000       4.76000       3.30000
       49.2400      -3.80000       8.77000       3.12000
       45.2400      -3.80000       12.7800       3.02000
       41.2400      -3.80000       16.7800       2.82000
       37.2400      -3.80000       20.8000       2.63000
       33.2400      -3.80000       24.7900       2.69000
       29.2400      -3.80000       28.7600       2.33000
       81.2400      -6.20000      -22.9300       7.64000
       77.2400      -6.20000      -19.0300       7.28000
       73.2400      -6.20000      -15.0200       6.98000
       69.2400      -6.20000      -11.0000       6.84000
       65.2400      -6.20000      -7.01000       6.54000
       61.2400      -6.20000      -3.02000       6.37000
       57.2400      -6.20000      0.939999       5.91000
       53.2400      -6.20000       4.92000       5.61000
       49.2400      -6.20000       8.92000       5.28000
       45.2400      -6.20000       12.9300       4.99000
       41.2400      -6.20000       16.9200       4.76000
       37.2400      -6.20000       20.9200       4.38000
       33.2400      -6.20000       24.9300       4.14000
       29.2400      -6.20000       28.9100       3.77000
       81.2400      -8.60000      -22.5500       11.1000
       77.2400      -8.60000      -18.8000       10.4000
       73.2400      -8.60000      -14.7000       10.1500
       69.2400      -8.60000      -10.6900       9.73000
       65.2400      -8.60000      -6.82000       9.33000
       61.2400      -8.60000      -2.76000       8.77000
       57.2400      -8.60000       1.23000       8.34000
       53.2400      -8.60000       5.19000       7.75000
       49.2400      -8.60000       9.17000       7.36000
       45.2400      -8.60000       13.1500       6.76000
       41.2400      -8.60000       17.1400       6.41000
       37.2400      -8.60000       21.1200       5.91000
       33.2400      -8.60000       25.1200       5.40000
       29.2400      -8.60000       29.0700       5.02000
       81.2400      -11.0000      -22.0600       14.3200
       77.2400      -11.0000      -18.2000       13.7400
       73.2400      -11.0000      -14.2200       13.1700
       69.2400      -11.0000      -10.2700       12.5100
       65.2400      -11.0000      -6.30000       12.0100
       61.2400      -11.0000      -2.34000       11.4300
       57.2400      -11.0000       1.61000       10.3600
       53.2400      -11.0000       5.54000       10.0500
       49.2400      -11.0000       9.50000       9.39000
       45.2400      -11.0000       13.4500       8.82000
       41.2400      -11.0000       17.4100       8.12000
       37.2400      -11.0000       21.3700       7.48000
       33.2400      -11.0000       25.3100       6.69000
       29.2400      -11.0000       29.2600       6.15000
       81.2400      -13.4000      -21.4300       17.5700
       77.2400      -13.4000      -17.6200       16.8300
       73.2400      -13.4000      -13.6600       16.1200
       69.2400      -13.4000      -9.83000       15.3700
       65.2400      -13.4000      -5.78000       14.7800
       61.2400      -13.4000      -1.84000       13.9500
       57.2400      -13.4000       2.09000       13.1600
       53.2400      -13.4000       5.99000       12.2100
       49.2400      -13.4000       9.92000       11.4300
       45.2400      -13.4000       13.8400       10.6000
       41.2400      -13.4000       17.7800       9.89000
       37.2400      -13.4000       21.7100       9.07000
       33.2400      -13.4000       25.6200       8.13000
       29.2400      -13.4000       29.5600       7.36000
       81.2400      -15.8000      -20.6100       20.8800
       77.2400      -15.8000      -16.8600       19.9200
       73.2400      -15.8000      -12.9500       19.0800
       69.2400      -15.8000      -9.06000       18.1200
       65.2400      -15.8000      -5.16000       17.1900
       61.2400      -15.8000      -1.23000       16.3500
       57.2400      -15.8000       2.66000       15.4200
       53.2400      -15.8000       6.53000       14.4200
       49.2400      -15.8000       10.4200       13.5500
       45.2400      -15.8000       14.3000       12.4200
       41.2400      -15.8000       18.2100       11.4800
       37.2400      -15.8000       22.0800       10.4300
       33.2400      -15.8000       25.9900       9.55000
       29.2400      -15.8000       29.8500       8.52000
       81.2400      -18.2000      -19.7600       23.9000
       77.2400      -18.2000      -16.0800       22.7100
       73.2400      -18.2000      -12.1900       21.7600
       69.2400      -18.2000      -8.32000       20.6800
       65.2400      -18.2000      -4.47000       19.5500
       61.2400      -18.2000     -0.619999       18.5800
       57.2400      -18.2000       3.26000       17.4900
       53.2400      -18.2000       7.04000       16.2600
       49.2400      -18.2000       10.8700       15.0600
       45.2400      -18.2000       14.7300       13.8600
       41.2400      -18.2000       18.6200       12.9800
       37.2400      -18.2000       22.4600       11.8200
       33.2400      -18.2000       26.3200       10.6100
       29.2400      -18.2000       30.1000       9.45000
       77.2400      -20.6000      -15.1800       25.6700
       73.2400      -20.6000      -11.3100       24.5900
       69.2400      -20.6000      -7.50000       23.3600
       65.2400      -20.6000      -3.67000       22.0500
       61.2400      -20.6000      0.180000       20.9400
       57.2400      -20.6000       3.97000       19.6700
       53.2400      -20.6000       7.79000       18.2400
       49.2400      -20.6000       11.5900       17.1700
       45.2400      -20.6000       15.3700       15.8700
       41.2400      -20.6000       19.2200       14.6200
       37.2400      -20.6000       23.0100       13.2600
       33.2400      -20.6000       26.7200       11.8600
       29.2400      -20.6000       30.4900       10.5000
       69.2400      -23.0000      -6.57000       25.6900
       65.2400      -23.0000      -2.76000       24.3800
       61.2400      -23.0000      0.959999       23.0300
       57.2400      -23.0000       4.73000       21.6500
       53.2400      -23.0000       8.40000       20.7100
       49.2400      -23.0000       12.1100       18.6700
       45.2400      -23.0000       15.9200       17.2800
       41.2400      -23.0000       19.7400       15.9700
       37.2400      -23.0000       23.7300       14.3600
       33.2400      -23.0000       27.1600       12.9500
       29.2400      -23.0000       30.9600       11.6800
