 5   1   1.208   -14302.956   3:42:37.522 PM 1/30/2012
 5   2   1.208   -14351.886   3:39:12.895 PM 1/30/2012
 5   3   1.215   -14704.649   3:43:04.007 PM 1/30/2012
 5   4   1.217   -14433.169   3:40:05.864 PM 1/30/2012
 5   5   1.210   -14463.730   3:40:32.346 PM 1/30/2012
 5   6   1.227   -15390.765   3:14:00.860 PM 1/30/2012
 5   7   1.229   -15200.020   3:14:27.325 PM 1/30/2012
 5   8   1.225   -14903.698   3:14:53.808 PM 1/30/2012
 7   1   1.223   -14840.522   3:15:47.280 PM 1/30/2012
 7   2   1.218   -14466.609   3:16:13.755 PM 1/30/2012
 7   3   1.205   -14012.455   3:16:41.168 PM 1/30/2012
 7   4   1.220   -14751.163   3:17:11.320 PM 1/30/2012
 7   5   1.228   -15269.354   3:17:39.143 PM 1/30/2012
 7   6   1.221   -14809.540   3:18:35.960 PM 1/30/2012
 7   7   1.218   -14825.939   3:19:02.444 PM 1/30/2012
 7   8   1.216   -14462.046   3:19:28.927 PM 1/30/2012
 9   1   1.208   -14403.162   3:23:50.072 PM 1/30/2012
 9   2   1.211   -14529.259   3:24:16.557 PM 1/30/2012
 9   3   1.226   -15098.686   3:24:43.040 PM 1/30/2012
 9   4   1.218   -14785.544   3:25:09.523 PM 1/30/2012
 9   5   1.203   -13971.383   3:25:36.006 PM 1/30/2012
 9   6   1.215   -14671.173   3:30:04.633 PM 1/30/2012
 9   7   1.219   -14953.779   3:30:31.117 PM 1/30/2012
 9   8   1.211   -14442.806   3:30:57.600 PM 1/30/2012
11   1   1.225   -15021.564   3:31:54.728 PM 1/30/2012
11   2   1.217   -14610.904   3:32:21.212 PM 1/30/2012
11   3   1.211   -14256.453   3:32:47.696 PM 1/30/2012
11   4   1.207   -14373.914   3:33:14.181 PM 1/30/2012
11   5   1.216   -14417.970   3:33:40.665 PM 1/30/2012
11   6   1.214   -14566.746   3:34:34.769 PM 1/30/2012
11   7   1.213   -14522.148   3:35:01.253 PM 1/30/2012
11   8   1.215   -14565.461   3:35:27.676 PM 1/30/2012
